{
  "widgetOnScreen": {
    "widgets": [{
      "uri": "themes/BoxTheme/widgets/BoxController/Widget",
      "position": {
        "right": 0,
        "bottom": 0
      },
      "version": "2.18"
    }, {
      "uri": "widgets/OverviewMap/Widget",
      "visible": false,
      "position": {
        "right": 0,
        "top": 0
      },
      "version": "2.18"
    }, {
      "uri": "widgets/ZoomSlider/Widget",
      "visible": true,
      "position": {
        "left": 10,
        "top": 10
      },
      "version": "2.18"
    }, {
      "uri": "widgets/HomeButton/Widget",
      "visible": false,
      "position": {
        "left": 10,
        "top": 70
      },
      "version": "2.18"
    }, {
      "uri": "widgets/MyLocation/Widget",
      "visible": false,
      "position": {
        "left": 10,
        "top": 100
      },
      "version": "2.18"
    }, {
      "uri": "widgets/Search/Widget",
      "visible": false,
      "position": {
        "left": 40,
        "top": 10
      },
      "version": "2.8"
    }, {
      "uri": "widgets/Scalebar/Widget",
      "visible": false,
      "position": {
        "left": 10,
        "bottom": 30
      },
      "version": "2.18"
    }, {
      "uri": "widgets/Coordinate/Widget",
      "visible": false,
      "position": {
        "left": 10,
        "bottom": 10
      },
      "version": "2.18"
    }, {
      "uri": "widgets/AttributeTable/Widget",
      "visible": false,
      "version": "2.18",
      "position": {
        "relativeTo": "browser"
      }
    }, {
      "uri": "widgets/Splash/Widget",
      "visible": false,
      "position": {
        "relativeTo": "browser"
      },
      "version": "2.18"
    }, {
      "uri": "widgets/ExtentNavigate/Widget",
      "visible": false,
      "position": {
        "left": 10,
        "top": 160
      },
      "version": "2.18"
    }, {
      "uri": "widgets/FullScreen/Widget",
      "visible": false,
      "position": {
        "left": 10,
        "top": 130
      },
      "version": "2.18"
    }]
  },

  "map": {
    "position": {
      "left": 0,
      "top": 0,
      "right": 0,
      "bottom": 0
    }
  },

  "widgetPool": {
    "panel": {
      "uri": "themes/BoxTheme/panels/BoxPanel/Panel",
      "positionRelativeTo": "browser",
      "position": {
        "left": 0,
        "top": 0,
        "right": 0,
        "bottom": 0
      }
    }
  }
}
