{
  "widgetOnScreen": {
    "widgets": [{
      "uri": "widgets/Search/Widget",
      "position": {
        "left": 60,
        "top": 10
      },
      "version": "2.18"
    }, {
      "uri": "widgets/ZoomSlider/Widget",
      "position": {
        "top": 10,
        "left":15
      },
      "version": "2.18"
    }, {
      "uri": "widgets/HomeButton/Widget",
      "position": {
        "left": 15,
        "top": 80
      },
      "version": "2.18"
    }, {
      "uri": "widgets/MyLocation/Widget",
      "position": {
        "left": 15,
        "top": 120
      },
      "version": "2.18"
    }, {
      "uri": "widgets/Scalebar/Widget",
      "position": {
        "left": 15,
        "bottom": 25
      },
      "version": "2.18"
    }, {
      "uri": "widgets/Coordinate/Widget",
      "position": {
        "left": 15,
        "bottom": 5
      },
      "version": "2.18"
    }, {
      "uri": "widgets/OverviewMap/Widget",
      "position": {
        "right": 0,
        "bottom": 0
      },
      "version": "2.18"
    }, {
      "uri": "widgets/Splash/Widget",
      "visible": false,
      "position": {
        "relativeTo": "browser"
      },
      "version": "2.18"
    }, {
      "position": {
        "left": 60,
        "top": 53
      }
    }, {
      "position": {
        "left": 105,
        "top": 53
      }
    }, {
      "position": {
        "left": 150,
        "top": 53
      }
    }, {
      "position": {
        "left": 195,
        "top": 53
      }
    }, {
      "position": {
        "left": 240,
        "top": 53
      }
    }, {
      "uri": "widgets/ExtentNavigate/Widget",
      "visible": false,
      "position": {
        "left": 15,
        "top": 159
      },
      "version": "2.18"
    }, {
      "uri": "widgets/FullScreen/Widget",
      "visible": false,
      "position": {
        "right": 8,
        "top": 8
      },
      "version": "2.18"
    }]
  },

  "mobileLayout": {
    "widgetOnScreen": {
      "widgets": {
        "widgets/Scalebar/Widget": {
          "position": {
            "left": 15,
            "bottom": 25
          }
        },
        "widgets/Coordinate/Widget": {
          "position": {
            "left": 15,
            "bottom": 5
          }
        },
        "ph_8": {
          "position": {
            "left": 60,
            "top": 53
          }
        },
        "ph_9": {
          "position": {
            "left": 105,
            "top": 53
          }
        },
        "ph_10": {
          "position": {
            "left": 150,
            "top": 53
          }
        },
        "ph_11": {
          "position": {
            "left": 195,
            "top": 53
          }
        },
        "ph_12": {
          "position": {
            "left": 240,
            "top": 53
          }
        }
      }
    }
  },

  "map": {
    "position": {
      "left": 0,
      "top": 0,
      "right": 0,
      "bottom": 0
    }
  }
}