{
  "theme": {
    "name": "JewelryBoxTheme",
    "styles": [
      "yellow",
      "default",
      "black",
      "green",
      "cyan",
      "red",
      "purple",
      "blue"
    ],
    "version": "2.21",
    "sharedTheme": {
      "useHeader": false,
      "useLogo": false,
      "isPortalSupport": true
    },
    "customStyles": {
      "mainBackgroundColor": "#14375a"
    }
  },
  "portalUrl": "https://txdot.maps.arcgis.com",
  "appId": "",
  "authorizedCrossOriginDomains": [
    "weather-services.telventdtn.com",
    "editmap.drivetexas.txdot.gov",
    "maps.dot.state.tx.us",
    "apps.geopowered.com",
    "arcgis.highstreet.work",
    "wa11.ptntools.com",
    "gis-batch-test.txdot.gov"
  ],
  "title": "Plan Management Portal",
  "subtitle": "",
  "keepAppState": false,
  "logo": "images/logo.jpeg",
  "geometryService": "https://utility.arcgisonline.com/arcgis/rest/services/Geometry/GeometryServer",
  "links": [],
  "widgetOnScreen": {
    "widgets": [
      {
        "uri": "themes/JewelryBoxTheme/widgets/HeaderController/Widget",
        "position": {
          "left": 0,
          "top": 0,
          "right": 0,
          "height": 40,
          "relativeTo": "browser"
        },
        "version": "2.21",
        "id": "themes_JewelryBoxTheme_widgets_HeaderController_Widget_21",
        "name": "HeaderController"
      },
      {
        "uri": "widgets/Scalebar/Widget",
        "position": {
          "left": 7,
          "bottom": 25,
          "relativeTo": "map"
        },
        "version": "2.21",
        "id": "widgets_Scalebar_Widget_22",
        "name": "Scalebar"
      },
      {
        "uri": "widgets/Search/Widget",
        "position": {
          "left": 55,
          "top": 5,
          "relativeTo": "map"
        },
        "version": "2.21",
        "id": "widgets_Search_Widget_23",
        "name": "Search",
        "config": "configs/Search/config_widgets_Search_Widget_23.json",
        "visible": false
      },
      {
        "uri": "widgets/Coordinate/Widget",
        "position": {
          "left": 7,
          "bottom": 5,
          "relativeTo": "map"
        },
        "version": "2.21",
        "id": "widgets_Coordinate_Widget_24",
        "name": "Coordinate",
        "config": "configs/Coordinate/config_widgets_Coordinate_Widget_24.json",
        "visible": false
      },
      {
        "position": {
          "left": 55,
          "top": 45,
          "relativeTo": "map"
        },
        "placeholderIndex": 1,
        "id": "_25"
      },
      {
        "position": {
          "left": 105,
          "top": 45,
          "relativeTo": "map"
        },
        "placeholderIndex": 2,
        "id": "_26"
      },
      {
        "position": {
          "left": 155,
          "top": 45,
          "relativeTo": "map"
        },
        "placeholderIndex": 3,
        "id": "_27"
      },
      {
        "uri": "widgets/OverviewMap/Widget",
        "position": {
          "right": 0,
          "bottom": 0,
          "relativeTo": "map"
        },
        "version": "2.21",
        "id": "widgets_OverviewMap_Widget_28",
        "name": "OverviewMap"
      },
      {
        "uri": "widgets/HomeButton/Widget",
        "position": {
          "left": 7,
          "top": 75,
          "relativeTo": "map"
        },
        "version": "2.21",
        "id": "widgets_HomeButton_Widget_29",
        "name": "HomeButton"
      },
      {
        "uri": "widgets/MyLocation/Widget",
        "position": {
          "left": 7,
          "top": 110,
          "relativeTo": "map"
        },
        "version": "2.21",
        "id": "widgets_MyLocation_Widget_30",
        "name": "MyLocation",
        "config": "configs/MyLocation/config_widgets_MyLocation_Widget_30.json"
      },
      {
        "uri": "widgets/AttributeTable/Widget",
        "version": "2.21",
        "position": {
          "relativeTo": "browser"
        },
        "id": "widgets_AttributeTable_Widget_31",
        "name": "AttributeTable",
        "config": "configs/AttributeTable/config_widgets_AttributeTable_Widget_31.json",
        "visible": false
      },
      {
        "uri": "widgets/Splash/Widget",
        "position": {
          "relativeTo": "browser"
        },
        "version": "2.18",
        "id": "widgets_Splash_Widget_32",
        "name": "Splash",
        "config": "configs/Splash/config_widgets_Splash_Widget_32.json",
        "visible": false
      },
      {
        "uri": "widgets/ZoomSlider/Widget",
        "position": {
          "top": 5,
          "left": 7,
          "relativeTo": "map"
        },
        "version": "2.21",
        "id": "widgets_ZoomSlider_Widget_33",
        "name": "ZoomSlider"
      },
      {
        "uri": "widgets/ExtentNavigate/Widget",
        "visible": false,
        "position": {
          "top": 148,
          "left": 7,
          "relativeTo": "map"
        },
        "version": "2.21",
        "id": "widgets_ExtentNavigate_Widget_34",
        "name": "ExtentNavigate"
      },
      {
        "uri": "widgets/FullScreen/Widget",
        "visible": false,
        "position": {
          "right": 8,
          "top": 8,
          "relativeTo": "map"
        },
        "version": "2.21",
        "id": "widgets_FullScreen_Widget_35",
        "name": "FullScreen"
      }
    ],
    "groups": [
      {
        "visible": false,
        "panel": {
          "uri": "themes/JewelryBoxTheme/panels/LDockablePanel/Panel",
          "position": {
            "left": 0,
            "top": 40,
            "bottom": 0,
            "width": 800,
            "relativeTo": "browser"
          }
        },
        "maxWidgets": 1,
        "placeholderIndex": 1,
        "id": "_20",
        "widgets": [
          {
            "name": "PlanVerification",
            "version": "2.11",
            "uri": "widgets/PlanVerification/Widget",
            "config": "configs/PlanVerification/config_widgets_PlanVerification_Widget_36.json",
            "id": "widgets_PlanVerification_Widget_36"
          }
        ],
        "label": "Group 0",
        "icon": "widgets/PlanVerification/images/icon.png?wab_dv=2.21"
      }
    ],
    "panel": {
      "uri": "jimu/OnScreenWidgetPanel",
      "position": {
        "relativeTo": "map"
      }
    }
  },
  "map": {
    "3D": false,
    "2D": true,
    "position": {
      "left": 0,
      "top": 40,
      "right": 0,
      "bottom": 0
    },
    "itemId": "ff5ce314118b4fcbb95d24a3ea2ab388",
    "mapOptions": {
      "extent": {
        "xmin": -11139896.427613564,
        "ymin": 2457104.058893526,
        "xmax": -9682089.424159069,
        "ymax": 4832155.401769891,
        "spatialReference": {
          "wkid": 102100
        }
      }
    },
    "id": "map",
    "portalUrl": "https://txdot.maps.arcgis.com",
    "mapRefreshInterval": {
      "useWebMapRefreshInterval": true
    }
  },
  "widgetPool": {
    "panel": {
      "uri": "themes/JewelryBoxTheme/panels/FoldablePanel/Panel",
      "position": {
        "top": 5,
        "right": 5,
        "bottom": 5,
        "zIndex": 5,
        "relativeTo": "map"
      }
    },
    "widgets": [
      {
        "name": "About",
        "version": "2.18",
        "uri": "widgets/About/Widget",
        "config": "configs/About/config_widgets_About_Widget_37.json",
        "index": 2,
        "id": "widgets_About_Widget_37"
      },
      {
        "name": "BasemapGallery",
        "version": "2.21",
        "uri": "widgets/BasemapGallery/Widget",
        "config": "configs/BasemapGallery/config_widgets_BasemapGallery_Widget_38.json",
        "index": 3,
        "id": "widgets_BasemapGallery_Widget_38"
      },
      {
        "uri": "widgets/Legend/Widget",
        "version": "2.21",
        "id": "widgets_Legend_Widget_18",
        "name": "Legend",
        "index": 4
      },
      {
        "uri": "widgets/LayerList/Widget",
        "version": "2.21",
        "id": "widgets_LayerList_Widget_19",
        "name": "LayerList",
        "index": 5
      }
    ],
    "groups": []
  },
  "mobileLayout": {
    "widgetOnScreen": {
      "widgets": [
        {
          "uri": "themes/JewelryBoxTheme/widgets/HeaderController/Widget",
          "position": {
            "left": 0,
            "top": 0,
            "right": 0,
            "height": 40,
            "relativeTo": "browser"
          },
          "version": "2.21"
        },
        {
          "uri": "widgets/Scalebar/Widget",
          "position": {
            "left": 7,
            "bottom": 40,
            "relativeTo": "map"
          },
          "version": "2.21"
        },
        {
          "uri": "widgets/Search/Widget",
          "position": {
            "left": 55,
            "top": 5
          },
          "version": "2.21"
        },
        {
          "uri": "widgets/Coordinate/Widget",
          "position": {
            "left": 7,
            "bottom": 17,
            "relativeTo": "map"
          },
          "version": "2.21"
        },
        {
          "position": {
            "left": 55,
            "top": 45
          }
        },
        {
          "position": {
            "left": 105,
            "top": 45
          }
        },
        {
          "position": {
            "left": 155,
            "top": 45
          }
        },
        {
          "uri": "widgets/OverviewMap/Widget",
          "position": {
            "right": 0,
            "bottom": 0
          },
          "version": "2.21"
        },
        {
          "uri": "widgets/HomeButton/Widget",
          "inPanel": false,
          "position": {
            "left": 7,
            "top": 75
          },
          "version": "2.21"
        },
        {
          "uri": "widgets/MyLocation/Widget",
          "inPanel": false,
          "position": {
            "left": 7,
            "top": 110
          },
          "version": "2.21"
        },
        {
          "uri": "widgets/AttributeTable/Widget",
          "version": "2.21",
          "position": {
            "relativeTo": "browser"
          }
        },
        {
          "uri": "widgets/Splash/Widget",
          "visible": false,
          "position": {
            "relativeTo": "browser"
          },
          "version": "2.21"
        },
        {
          "uri": "widgets/ZoomSlider/Widget",
          "visible": true,
          "position": {
            "top": 5,
            "left": 7
          },
          "version": "2.21"
        },
        {
          "uri": "widgets/ExtentNavigate/Widget",
          "visible": false,
          "position": {
            "top": 148,
            "left": 7
          },
          "version": "2.21"
        },
        {
          "uri": "widgets/FullScreen/Widget",
          "visible": false,
          "position": {
            "right": 8,
            "top": 8
          },
          "version": "2.21"
        }
      ],
      "groups": [
        {
          "visible": false,
          "panel": {
            "uri": "themes/JewelryBoxTheme/panels/LDockablePanel/Panel",
            "position": {
              "left": 0,
              "top": 40,
              "bottom": 0,
              "width": 360,
              "relativeTo": "browser"
            }
          },
          "maxWidgets": 1
        }
      ]
    },
    "map": {
      "position": {
        "left": 0,
        "top": 40,
        "right": 0,
        "bottom": 0
      }
    },
    "widgetPool": {
      "panel": {
        "uri": "themes/JewelryBoxTheme/panels/FoldablePanel/Panel",
        "position": {
          "top": 5,
          "right": 5,
          "bottom": 5,
          "zIndex": 5
        }
      }
    }
  },
  "loadingPage": {
    "backgroundColor": "#cc7b29",
    "backgroundImage": {
      "visible": false
    },
    "loadingGif": {
      "visible": true,
      "uri": "/webappbuilder/apps/3/configs/loading/images/predefined_loading_2.gif",
      "width": 58,
      "height": 10
    }
  },
  "wabVersion": "2.21",
  "isTemplateApp": true,
  "isWebTier": false,
  "httpProxy": {
    "useProxy": true,
    "alwaysUseProxy": false,
    "url": "",
    "rules": []
  },
  "dataSource": {
    "dataSources": {},
    "settings": {}
  },
  "logoLink": "https://www.txdot.gov/",
  "logoAlt": "TxDOT Logo"
}