{
    "configHeader" : "Enter a bike/pedestrian plan using this form",
    "configDistricts" : "https://services.arcgis.com/KTcxiTD9dsQw4r7Z/arcgis/rest/services/TxDOT_Districts/FeatureServer/0/query"
}