{
  "theme": {
    "name": "FoldableTheme"
  },
  "portalUrl": "http://www.arcgis.com",
  "appId":"",
  "title": "ArcGIS Web Application - Demo Widgets",
  "subtitle": "with ArcGIS Web AppBuilder",
  "geometryService": "http://tasks.arcgisonline.com/ArcGIS/rest/services/Geometry/GeometryServer",
  "links":[
    {
      "label": "ArcGIS Online"
    }
  ],

  "widgetOnScreen": {
    "widgets": [{
      "uri": "themes/FoldableTheme/widgets/HeaderController/Widget",
      "positionRelativeTo": "browser",
      "position": {
        "left": 0,
        "top": 0,
        "right": 0,
        "height": 45
      }
    }, {
      "uri": "widgets/DataEntryForm/Widget",
      "position": {
        "left": 45,
        "top": 45
      }
    }, {
      "uri": "widgets/Select/Widget",
      "position": {
        "left": 95,
        "top": 45
      }
    }]
  },

  "map": {
    "3D": false,
    "2D": true,

    "itemId": "141f8f1a43a8405993e08264836a207b",

    "position": {
      "left": 0,
      "top": 45,
      "right": 0,
      "bottom": 0
    }
  },
  "widgetPool": {
    "panel": {
      "uri": "themes/FoldableTheme/panels/FoldablePanel/Panel",
      "positionRelativeTo": "map",
      "position": {
        "top": 1,
        "right": 1,
        "bottom": 1
      }
    },

    "widgets": [{
      "label": "Demo",
      "uri": "widgets/samplewidgets/Demo/Widget"
    },{
      "label": "UseJQuery",
      "uri": "widgets/samplewidgets/UseJQuery/Widget"
    },{
      "label": "Simple",
      "uri": "widgets/samplewidgets/Simple/Widget"
    },{
      "label": "CustomWidgetTemplate",
      "uri": "widgets/samplewidgets/CustomWidgetTemplate/Widget"
    }, {
      "uri": "widgets/samplewidgets/WidgetCommunication/WidgetB/Widget"
    }]
  }
}
